<!-- Generated automatically via `rake generate_svg` -->
<svg xmlns="http://www.w3.org/2000/svg" width="134" height="25">
  <g shape-rendering="crispEdges">
    <path fill="#E39E00" d="M0 0h134v25H0z"/>
  </g>
  <text x="67" y="16" fill="#fff" text-anchor="middle" font-family="DejaVu Sans,Verdana,Geneva,sans-serif" font-size="13">update available</text>
</svg>
